<?xml version="1.0" encoding="utf-8"?>
<!-- Generator: Adobe Illustrator 23.0.1, SVG Export Plug-In . SVG Version: 6.00 Build 0)  -->
<svg version="1.1" id="Capa_1" xmlns="http://www.w3.org/2000/svg" xmlns:xlink="http://www.w3.org/1999/xlink" x="0px" y="0px"
	 viewBox="0 0 28.6 19.9" style="enable-background:new 0 0 28.6 19.9;" xml:space="preserve">
<style type="text/css">
	.st0{fill:#7E8B8F;}
</style>
<path class="st0" d="M0.3,9.1c-0.4,0.5-0.4,1.1,0,1.4l9.1,9.1c0.4,0.4,1.1,0.4,1.4,0c0.4-0.4,0.4-1.1,0-1.4l-7.3-7.3h24.1
	c0.5,0,1-0.5,1-1s-0.5-1-1-1h-24l7.2-7.2c0.4-0.5,0.4-1.1,0-1.4c-0.5-0.4-1.1-0.4-1.4,0L0.3,9.1z"/>
</svg>
